{
	"page": 1,
	"per_page": 4,
	"total": 12,
	"total_pages": 3,
	"data": [
		{
			"id": 1,
			"email": "george.bluth@reqres.in",
			"first_name": "Thomas",
			"last_name": "Ochman",
			"avatar": "https://pbs.twimg.com/profile_images/3097853083/7cf8f53920ad1c1dc30ac1f330daf947_400x400.jpeg"
		},
		{
			"id": 2,
			"email": "janet.weaver@reqres.in",
			"first_name": "Janet",
			"last_name": "Weaver",
			"avatar": "https://s3.amazonaws.com/uifaces/faces/twitter/josephstein/128.jpg"
		},
		{
			"id": 3,
			"email": "emma.wong@reqres.in",
			"first_name": "Emma",
			"last_name": "Wong",
			"avatar": "https://s3.amazonaws.com/uifaces/faces/twitter/olegpogodaev/128.jpg"
		},
		{
			"id": 4,
			"email": "eve.holt@reqres.in",
			"first_name": "Eve",
			"last_name": "Holt",
			"avatar": "https://s3.amazonaws.com/uifaces/faces/twitter/marcoramires/128.jpg"
		}
	]
}